word,sentiment
tout,0
petit,0
grand,0
seul,0
autre,0
même,0
bon,0
premier,0
beau,0
jeune,0
vieux,0
noir,1
long,0
blanc,0
vrai,0
sûr,1
dernier,0
plein,0
gros,-1
français,0
rouge,0
possible,0
quoi,0
bleu,-1
propre,0
mauvais,0
haut,0
heureux,0
pauvre,0
bas,0
nouveau,1
certain,0
nouvelle,0
nu,0
libre,0
fou,1
droit,0
froid,0
clair,0
gris,0
ancien,0
juste,0
léger,0
pareil,0
simple,0
entier,0
vide,-1
dur,1
lourd,-1
vert,1
doux,1
sec,1
fort,0
cher,0
ouvert,0
moindre,0
sombre,1
prêt,0
énorme,-1
joli,0
difficile,0
immobile,0
chaud,0
neuf,-1
mort,1
frais,0
humain,1
jaune,0
faux,0
court,0
large,0
immense,1
profond,1
triste,0
étrange,-1
sale,0
facile,0
national,0
fin,0
militaire,0
rose,-1
impossible,0
général,0
vif,1
drôle,1
grave,0
vivant,0
différent,1
tranquille,-1
lointain,1
épais,0
pur,0
gauche,0
second,0
terrible,0
rare,0
meilleur,0
important,0
allemand,0
content,1
capable,1
pâle,1
secret,0
proche,1
présent,1
rond,-1
mince,1
blond,0
commun,0
étroit,1
naturel,-1
étranger,1
bref,0
américain,0
silencieux,0
malade,1
calme,0
rapide,0
vaste,-1
politique,0
inutile,0
unique,1
britannique,-1
brun,1
nécessaire,1
obscur,0
curieux,0
sérieux,-1
vague,0
riche,1
soudain,1
public,1
gentil,-1
lent,0
normal,-1
maigre,0
minuscule,-1
précis,0
inconnu,1
plat,-1
anglais,0
entendu,0
tendre,1
nombreux,0
prochain,0
deuxième,0
double,0
malheureux,0
passé,0
perdu,0
amoureux,1
fier,0
pire,0
troisième,0
vain,1
fermé,1
véritable,0
sauvage,0
particulier,0
mystérieux,1
faible,1
humide,1
brillant,0
fameux,0
semblable,1
divers,0
désert,0
invisible,1
bizarre,0
fait,0
violent,1
vieil,-1
suivant,0
sourd,1
intérieur,0
doré,-1
personnel,0
social,0
voisin,0
gras,0
russe,0
familier,1
puissant,0
dangereux,0
supérieur,1
inquiet,0
incapable,1
éternel,1
muet,0
joyeux,0
ridicule,-1
extrême,-1
fragile,1
sacré,-1
ferme,0
tiède,0
furieux,0
venu,0
complet,0
demi,1
parfait,1
extraordinaire,0
solide,0
saint,1
bête,1
gai,0
moyen,0
total,0
régulier,0
serré,-1
charmant,0
réel,0
roux,0
merveilleux,0
glacé,1
net,0
habituel,0
fixe,0
lumineux,1
affreux,0
raide,0
égal,1
précieux,1
principal,-1
sensible,0
interminable,-1
exact,1
aveugle,0
tendu,0
douloureux,0
quotidien,1
confus,-1
central,1
nocturne,0
bel,0
délicat,1
juif,1
bien,0
paisible,0
futur,1
brûlant,0
agréable,0
cruel,1
électrique,0
nerveux,0
italien,1
attentif,1
intelligent,0
fidèle,0
brutal,1
brusque,0
digne,-1
nul,0
las,-1
brave,1
moderne,0
intime,1
"mou,mol",0
moral,0
absolu,0
formidable,1
méchant,0
excellent,0
con,-1
évident,0
lisse,1
célèbre,1
mouillé,0
idiot,0
physique,1
discret,1
féminin,1
officiel,0
familial,1
utile,0
endormi,-1
vu,0
aigu,0
intact,1
définitif,1
modeste,0
noble,0
fatigué,0
admirable,0
pressé,1
populaire,0
spécial,0
sage,-1
enfantin,0
absurde,1
transparent,0
âgé,1
élevé,1
visible,0
parisien,1
assis,0
indifférent,0
amer,0
étonnant,0
extérieur,0
rude,0
absent,1
sévère,0
innombrable,0
prisonnier,-1
grec,0
royal,0
aimable,0
connu,0
élégant,1
quelconque,0
intéressant,0
délicieux,1
luisant,0
civil,0
honnête,-1
ordinaire,1
menu,0
carré,0
magnifique,1
ivre,0
arrière,0
stupide,0
pénible,-1
sonore,0
souple,1
infini,0
catholique,0
solitaire,1
coupé,1
laid,1
direct,0
violet,0
exprès,0
banal,0
levé,1
ami,1
sinistre,1
magique,1
ultime,0
insupportable,-1
allié,0
horrible,1
arabe,1
vierge,-1
timide,1
inattendu,1
creux,0
chinois,0
espagnol,-1
divin,1
international,1
soviétique,0
immédiat,1
compliqué,0
avant,0
abandonné,0
religieux,1
jaloux,0
précédent,0
superbe,1
métallique,0
maternel,0
généreux,0
coupable,1
raisonnable,1
souriant,0
récent,1
franc,1
bourgeois,1
fatal,0
étonné,1
redoutable,0
innocent,1
essentiel,1
amical,1
suprême,0
misérable,0
subtil,1
pourri,-1
local,1
cassé,0
communiste,0
incroyable,0
intense,1
grossier,0
tragique,1
sincère,1
mou,1
massif,0
honteux,-1
nouvel,1
privé,1
ardent,0
responsable,0
mécanique,1
indispensable,1
gigantesque,-1
surpris,0
pointu,0
naïf,0
romain,1
chrétien,1
singulier,0
géant,0
dérisoire,1
hostile,0
aérien,0
tremblant,0
armé,0
classique,0
incertain,0
considérable,0
monstrueux,0
inquiétant,1
économique,0
rempli,0
peint,1
actuel,0
professionnel,-1
sexuel,-1
prudent,0
marine,0
malin,1
éclatant,0
pris,0
courant,-1
mortel,1
exceptionnel,1
sanglant,1
arrivé,0
surprenant,1
mûr,1
solennel,1
morne,0
clos,-1
final,0
désagréable,-1
vilain,0
imaginaire,1
apparent,0
effrayant,0
impérial,0
ennemi,1
suffisant,0
successif,0
insolite,0
rauque,0
amusant,1
instant,0
chéri,-1
oublié,0
sain,1
maladroit,-1
fini,0
humble,-1
glorieux,1
brûlé,1
perpétuel,-1
pascal,0
historique,1
probable,0
multiple,1
incompréhensible,-1
éteint,0
moche,0
éclairé,0
pesant,0
mauve,0
clandestin,0
blessé,0
maudit,-1
fabuleux,1
atroce,-1
exquis,0
savant,0
dégueulasse,0
habillé,0
croisé,-1
sentimental,1
littéraire,0
habile,0
commode,0
usé,-1
complice,0
urgent,0
sournois,0
ras,0
matériel,1
inférieur,-1
suspect,0
gêné,1
constant,1
bruyant,0
écarté,0
vulgaire,0
postal,0
impatient,-1
foutu,0
rassurant,0
pratique,-1
poli,0
menaçant,0
soucieux,1
mélancolique,0
favorable,-1
poussiéreux,-1
subit,1
inévitable,0
feu,1
brisé,1
aîné,1
mondial,0
idéal,1
funèbre,0
désespéré,0
provisoire,0
ironique,1
sur,0
légitime,0
féroce,1
convenable,-1
avide,1
terne,0
flou,0
trouble,0
maître,0
lâche,1
dit,0
décisif,0
combattant,0
douteux,1
ouvrier,1
médiocre,0
européen,0
cru,0
agressif,-1
gracieux,0
quatrième,0
supplémentaire,-1
collectif,1
vitré,0
occidental,-1
sympathique,-1
satisfait,-1
excessif,-1
antique,1
monotone,-1
injuste,0
café,1
vertical,0
identique,0
cuit,-1
rêveur,1
irrésistible,1
interdit,1
imperceptible,0
efficace,1
caché,0
traditionnel,0
intellectuel,0
inouï,1
gluant,0
farouche,1
couché,1
confortable,0
universel,0
moite,0
joint,0
patient,0
fade,0
couvert,0
liquide,0
tordu,1
permanent,0
passionné,0
isolé,1
disparu,1
anonyme,0
stupéfait,0
rendu,1
polonais,0
blême,0
japonais,0
furtif,1
conscient,0
allumé,0
affectueux,1
tombé,0
spirituel,-1
municipal,0
inerte,0
contraire,0
opposé,0
strict,0
oriental,0
odieux,1
chic,-1
assuré,0
animal,1
scolaire,0
émouvant,1
élémentaire,0
relatif,-1
volontaire,1
favori,-1
épuisé,0
paternel,0
natal,1
insignifiant,0
glacial,0
uni,0
distrait,0
chouette,0
multicolore,0
marron,0
donné,0
actif,1
mignon,-1
ravissant,0
imbécile,0
forcé,-1
capital,-1
posé,0
comique,1
infernal,0
déchiré,1
flottant,0
ennuyeux,-1
éblouissant,1
remarquable,0
prodigieux,0
mondain,0
éventuel,0
étincelant,1
somptueux,1
saoul,-1
mouvant,1
hagard,0
soi-disant,-1
roman,0
parallèle,0
opaque,0
gratuit,-1
technique,-1
soyeux,0
souterrain,1
obscène,0
grisâtre,0
rituel,1
grotesque,0
sublime,1
battant,1
triomphant,1
marin,1
aimé,0
tiré,0
colonial,1
mobile,-1
latin,0
gonflé,-1
terrestre,0
allongé,0
pendant,0
mis,0
détaché,1
tenace,1
pieux,1
lucide,1
irréel,0
imprévisible,1
enceinte,1
désolé,-1
conséquent,0
mat,0
marrant,0
inverse,0
ignoble,0
bavard,-1
incessant,0
éloigné,1
limpide,0
insensible,1
artificiel,-1
ému,0
révolutionnaire,0
radieux,0
impérieux,0
hésitant,0
fréquent,1
africain,0
monumental,0
logique,0
frêle,0
fichu,1
errant,1
disponible,-1
courageux,1
égaré,0
suspendu,1
susceptible,0
nord,0
médical,0
infime,-1
ample,0
voûté,0
insensé,0
figé,0
dressé,0
battu,0
neutre,1
stérile,-1
dingue,0
dense,0
parti,0
in,0
minable,0
majeur,1
impuissant,0
chaleureux,0
âcre,0
puant,0
oblique,0
impassible,1
affolé,0
occupé,0
mal,0
indécis,0
domestique,0
mental,0
fumant,1
dramatique,1
convaincu,-1
authentique,1
abstrait,0
résolu,0
intolérable,0
héroïque,1
indien,1
abominable,-1
épars,0
porteur,0
fauve,0
cinquième,0
boueux,0
avancé,1
pathétique,1
majestueux,0
foncé,0
administratif,0
salé,0
préféré,0
penché,1
nature,0
fiévreux,0
crasseux,0
compris,0
charnel,0
adulte,-1
sordide,0
choisi,0
austère,-1
téléphonique,0
meurtrier,1
inaccessible,0
hautain,0
perplexe,0
honorable,0
chauve,0
matinal,0
marié,0
inconscient,0
viril,0
sensuel,0
protecteur,1
impitoyable,0
hardi,0
arrêté,0
serein,0
indigne,1
déçu,-1
barbare,0
vigoureux,0
turc,0
roulant,0
ovale,0
original,0
musical,-1
livide,0
implacable,0
argenté,0
accompli,1
renversé,0
horizontal,0
critique,0
compact,1
anxieux,0
aigre,0
vêtu,0
vertigineux,0
valable,0
socialiste,0
paysan,0
lugubre,-1
laiteux,0
terrifiant,1
paresseux,0
fantastique,0
enveloppé,0
confiant,1
béant,1
suisse,1
romantique,0
gênant,0
fraternel,1
déchirant,0
blafard,0
antérieur,0
écrasé,0
primitif,0
parfumé,0
génial,1
frisé,0
conforme,0
veuf,0
stratégique,0
splendide,1
relevé,0
orange,0
masculin,1
fleuri,0
saillant,0
romanesque,0
robuste,0
impeccable,0
entrouvert,0
découvert,1
décidé,0
tardif,1
souverain,0
rocheux,0
libéré,1
grandiose,0
diplomatique,0
artistique,-1
rigide,1
méfiant,0
jaunâtre,0
âpre,0
méprisant,-1
incrédule,0
impressionnant,1
gourmand,-1
défait,0
breton,0
agité,0
vital,0
soigné,0
propice,0
pensif,1
immuable,0
haletant,1
verdâtre,0
touchant,1
réduit,0
portant,0
plaisant,1
fumé,0
culturel,1
courtois,0
commercial,0
circulaire,0
volant,0
modèle,1
illustre,1
docile,0
continu,0
trempé,0
puéril,-1
peinard,0
instinctif,0
conjugal,0
épouvantable,0
symbolique,-1
mécontent,0
inépuisable,1
invraisemblable,0
informe,0
fugitif,0
dru,0
coloré,1
écrit,0
tenu,0
privilégié,0
indépendant,0
hargneux,0
froissé,-1
effrayé,0
distinct,0
sportif,0
imposant,0
immaculé,0
essoufflé,0
distingué,0
victorieux,0
osseux,0
jeté,1
incomparable,0
glauque,1
financier,-1
rageur,0
miraculeux,1
lamentable,-1
hideux,1
éphémère,0
têtu,0
reconnaissant,1
pitoyable,0
orgueilleux,0
fondamental,0
effacé,0
voulu,0
triple,0
tombant,0
suivi,0
revenu,0
ménager,1
moqueur,0
marchand,-1
insolent,0
exemplaire,0
communal,0
trapu,0
sucré,0
poilu,1
placé,1
malsain,-1
louche,0
formel,1
contradictoire,1
colossal,0
blindé,0
troublant,1
roulé,0
poisseux,0
moustachu,0
jumeau,1
imprévu,1
exotique,0
effroyable,0
belge,-1
ambigu,1
éveillé,0
respectueux,0
animé,1
érotique,-1
végétal,0
républicain,0
mystique,-1
inhumain,0
guerrier,1
fâcheux,0
continue,0
rugueux,0
naval,0
morose,0
minéral,0
volé,1
plissé,0
hilare,0
secondaire,0
prompt,0
chargé,1
brut,1
anodin,1
écarlate,0
voyant,1
vaillant,0
triomphal,0
répugnant,1
mâle,-1
buté,1
amiral,0
tourné,1
ravi,1
issu,1
dupe,-1
complexe,1
arraché,0
précipité,1
indiscret,0
frémissant,0
criminel,0
évanoui,0
établi,1
montant,-1
jauni,1
démesuré,0
scandaleux,-1
rigoureux,1
négatif,1
ingrat,0
fuyant,1
futile,1
ensoleillé,0
dérobé,0
craintif,0
barbu,0
atomique,0
acide,0
réservé,1
réciproque,1
indistinct,0
grêle,-1
glissant,0
accroupi,0
séduisant,-1
satisfaisant,0
rectangulaire,0
correct,0
étouffé,0
énigmatique,1
vache,0
sot,0
rêche,0
radical,1
poétique,0
obligé,1
inégal,0
individuel,0
censé,-1
brodé,0
bouillant,0
beige,0
rangé,1
inoffensif,1
contenu,0
étouffant,1
vulnérable,0
troublé,1
théâtral,0
spontané,0
obligatoire,0
maussade,0
enchanté,1
adorable,0
égoïste,0
ténébreux,1
infâme,0
anormal,-1
nommé,1
fulgurant,0
fatigant,-1
exigeant,0
arrondi,0
sympa,-1
intéressé,-1
aisé,-1
réussi,0
reçu,0
respectif,0
préférable,0
pressant,0
positif,1
nazi,-1
industriel,1
improbable,0
enthousiaste,-1
ahuri,0
retenu,0
prétendu,0
payé,-1
nonchalant,0
irrégulier,0
imminent,0
éperdu,0
or,0
inaperçu,-1
illuminé,0
grillé,0
fané,0
doué,0
changé,-1
automatique,0
tricolore,0
organisé,0
légendaire,0
inoubliable,1
incongru,0
hurlant,0
désinvolte,1
distant,0
bienveillant,0
visqueux,0
velu,0
suave,0
solaire,1
perceptible,1
luxueux,0
gémellaire,0
exclusif,1
détendu,0
désireux,0
croissant,1
algérien,1
adolescent,1
abrupt,0
voluptueux,0
noyé,0
loyal,0
imprécis,0
flagrant,0
excitant,0
embarrassé,0
chétif,0
chantant,1
autrichien,0
agricole,0
séparé,0
strident,0
marqué,1
interne,1
céleste,0
écoeurant,0
sixième,0
sculpté,0
saugrenu,-1
passif,1
libéral,0
initial,0
bleuâtre,0
blanchâtre,0
attendu,0
attaché,1
salaud,0
résigné,0
ridé,0
planté,0
mi-clos,0
lavé,0
laborieux,-1
inhabituel,0
inexplicable,1
fébrile,0
bouclé,0
artiste,1
vaincu,1
uniforme,1
tournant,0
toc,0
suppliant,0
super,0
musulman,1
indulgent,0
inachevé,-1
hérétique,0
harmonieux,0
disant,-1
concret,0
bleuté,0
avare,0
abattu,0
écrasant,1
vicieux,0
taillé,0
passionnant,1
nourri,1
musclé,0
minutieux,1
audacieux,0
abondant,0
vénitien,0
réglementaire,0
plastique,0
parent,0
obstiné,0
mesquin,0
gardien,1
excité,0
douillet,0
admiratif,1
vibrant,1
vainqueur,1
suédois,0
sonnant,0
savoureux,0
juvénile,-1
impénétrable,0
flasque,0
dansant,0
cultivé,0
brumeux,0
alerte,0
épatant,0
tu,0
syrien,0
ruisselant,0
respectable,0
rayé,0
pourpre,0
policier,0
plaintif,0
piquant,0
passager,0
palpitant,1
odorant,0
dû,0
bouleversé,1
analogue,0
éclair,-1
verbal,0
périlleux,1
illisible,-1
ferré,0
exaltant,0
dégoûtant,0
continuel,1
capricieux,1
atteint,-1
sauf,0
réfléchi,0
psychologique,0
crevé,0
coupant,1
bronzé,0
achevé,0
verni,0
tropical,0
triangulaire,0
sujet,0
sud,0
promis,0
noué,0
mineur,1
involontaire,1
foudroyant,0
contemporain,0
apaisant,1
écossais,0
taciturne,0
scientifique,0
monté,1
insouciant,0
gothique,-1
extravagant,0
dédaigneux,0
coquet,0
stupéfiant,0
répété,0
retroussé,0
publicitaire,-1
prolongé,1
pittoresque,0
orphelin,0
originel,0
légal,0
hypocrite,-1
flatteur,0
désastreux,0
criard,0
assourdissant,0
ébloui,0
normand,0
imperturbable,0
haineux,0
forestier,0
cynique,1
costaud,0
campagnard,0
vénérable,0
précaire,0
prestigieux,0
narquois,0
métaphysique,0
limité,0
indigné,-1
indicible,1
dégagé,0
vexé,0
obsédant,0
méticuleux,1
inséparable,0
infect,0
infaillible,0
immonde,0
frénétique,0
consultatif,0
cocher,0
ballant,0
acquis,0
surnaturel,1
supportable,0
spectaculaire,0
soupçonneux,0
rustique,0
poignant,1
méconnaissable,0
moelleux,0
menacé,1
maritime,1
jovial,0
ignorant,-1
forain,1
automobile,1
argent,0
étendu,0
élastique,0
regardant,-1
raffiné,0
pervers,-1
mutilé,0
insaisissable,0
goguenard,0
expert,1
coutumier,0
charnu,0
boche,0
aveuglant,1
aride,0
voilé,1
unanime,0
songeur,0
réconfortant,0
rougeâtre,0
rectiligne,0
pensant,0
partagé,0
noirâtre,0
gamin,0
encombrant,1
dévoué,0
courbé,0
comparable,0
cavalier,0
affamé,0
scintillant,0
persuadé,-1
mêlé,0
machinal,0
indéfinissable,1
garni,0
fourbu,0
engagé,1
champêtre,0
appliqué,1
voleur,-1
ténu,1
tué,1
tumultueux,1
traître,0
prétentieux,-1
placide,1
durable,1
diabolique,0
condamné,1
véhément,0
violacé,0
traînant,0
translucide,0
terreux,0
soumis,0
maniaque,0
fripé,0
frileux,0
diffus,0
croyant,-1
cochon,0
épuisant,-1
signé,1
sceptique,1
réaliste,1
notoire,1
illusoire,1
galant,0
frivole,0
dégoûté,0
aligné,0
vraisemblable,0
varié,0
provincial,0
perçant,0
mourant,0
inéluctable,1
immortel,1
feutré,0
démocratique,0
bâtard,0
accessible,0
provocant,0
pavé,0
niais,0
latéral,0
inconcevable,0
gelé,0
défoncé,0
apeuré,0
superficiel,0
sinueux,1
septième,0
précoce,0
naissant,0
judiciaire,1
inspiré,0
hâtif,0
hirsute,0
froncé,0
feint,0
engourdi,0
délirant,1
bombé,0
assassin,0
épanoui,0
primaire,-1
insuffisant,0
incliné,0
fascinant,1
crème,0
composé,0
amateur,0
énergique,0
phosphorescent,0
parlant,1
mortuaire,0
hollandais,0
grandissant,-1
fourré,1
déplaisant,0
changeant,0
catégorique,0
bariolé,0
argentin,0
accablé,0
volumineux,0
tourmenté,0
spécialisé,0
restreint,0
pétrifié,-1
originaire,0
nègre,0
flamboyant,-1
désordonné,0
désarmé,0
déployé,0
ancestral,1
ambulant,0
acharné,0
accablant,0
éloquent,0
vécu,1
touché,0
révolu,0
réglé,0
poussé,-1
patriotique,1
mémorable,1
méditerranéen,1
lancinant,0
kaki,0
irrémédiable,0
inédit,1
détestable,0
bé,0
assoupi,0
troué,0
tranchant,1
pudique,0
progressif,1
nostalgique,1
intégral,-1
indécent,0
indiscutable,0
incohérent,0
impalpable,0
effondré,0
désabusé,1
défunt,0
ciré,0
bouleversant,1
angoissé,0
saccadé,0
lyrique,1
insistant,0
hystérique,1
esclave,1
désirable,0
décharné,0
canon,1
brunâtre,0
bourru,0
bienheureux,0
évasif,0
équivoque,0
souffrant,0
paradoxal,0
né,1
noueux,0
marocain,-1
maladif,0
lié,1
irremplaçable,0
inaltérable,0
déplorable,-1
croyable,0
courbe,0
commandant,0
chaste,0
vieilli,0
vacant,0
rompu,0
quitte,1
péremptoire,0
pâteux,-1
nain,0
mesuré,0
invincible,0
haché,-1
habitué,-1
graisseux,0
exténué,-1
enfoui,1
enclin,0
coûteux,0
convenu,-1
cave,0
averti,-1
avantageux,0
appuyé,0
accueillant,0
éventré,0
éminent,0
trompeur,-1
superposé,0
sous-marin,0
saisissant,0
pus,1
prononcé,-1
négligeable,0
notable,0
meurtri,0
incolore,0
impersonnel,0
garanti,1
gagné,1
femelle,0
dodu,0
ardu,0
agile,0
accoutumé,0
velouté,0
rieur,0
rentré,0
prostré,0
plan,0
orangé,0
noirci,0
instable,0
immémorial,0
fasciste,0
directeur,0
couchant,0
compréhensif,0
complaisant,-1
collant,0
allègre,0
préoccupé,0
piqué,0
perfide,0
penaud,0
miteux,0
maléfique,0
insoutenable,1
hérissé,0
funeste,0
fruste,0
délavé,0
créateur,0
bu,0
baroque,0
angélique,0
adroit,0
vacillant,-1
touffu,0
sommaire,0
solidaire,1
rusé,0
rayonnant,0
noiraud,0
menteur,0
manqué,1
inimaginable,0
infatigable,0
imprudent,0
géométrique,0
globuleux,0
fluide,1
défendu,0
déchaîné,0
cordial,0
chair,1
captif,0
alimentaire,-1
adéquat,0
élu,0
égyptien,0
volubile,0
tors,0
tenant,0
séculaire,-1
passant,0
ouest,0
orthodoxe,0
onctueux,0
ocre,0
morbide,1
incandescent,1
hétéroclite,0
hébété,1
gâté,0
grouillant,0
germanique,0
enculé,0
désaffecté,0
destiné,0
confidentiel,0
caractéristique,-1
candide,0
béat,0
bath,0
ambitieux,0
voyageur,1
vivace,0
vigilant,-1
tacite,0
sobre,0
reconnaissable,0
protégé,0
obtus,0
musicien,0
lunaire,0
forcené,1
exigu,0
esthétique,0
encombré,0
déchiqueté,0
débordant,1
débile,0
cohérent,1
chevelu,0
bruissant,0
branlant,0
bossu,0
borné,1
abruti,0
équatorial,0
ondulé,0
méditatif,0
inflexible,0
héréditaire,1
hitlérien,0
fâché,0
funéraire,0
fixé,0
enflammé,0
délabré,0
décevant,-1
cristallin,0
concentré,1
chronique,0
chimique,1
apte,1
vitreux,0
vaporeux,-1
stable,0
pénétrant,1
permis,1
meublé,0
impur,0
franque,0
fervent,-1
exagéré,0
cossu,0
superflu,0
soutenu,0
significatif,0
pluvieux,0
piteux,0
moisi,0
ledit,0
irréprochable,1
ineffable,0
indestructible,1
fendu,0
effilé,0
contraint,1
charbonneux,0
chagrin,1
casqué,0
bonhomme,0
épineux,0
électoral,0
urbain,1
réputé,0
ordonné,1
opulent,0
néfaste,0
malicieux,1
irréparable,0
fugace,0
enjoué,0
déconcertant,0
cycliste,0
boiteux,0
bien-aimé,0
acceptable,0
étudiant,0
torride,0
tassé,0
souris,1
saignant,0
rebelle,0
printanier,0
posthume,0
nuptial,0
insondable,0
ingénieux,0
inespéré,1
humilié,0
fluet,0
déterminé,0
dépourvu,0
découragé,0
décent,0
dispersé,0
brésilien,0
brouillé,1
adverse,0
énervé,0
torturé,0
spongieux,0
spacieux,0
rétif,0
routier,0
rance,0
puni,0
pompeux,0
pacifique,0
navré,0
médiéval,0
martial,-1
irritant,0
huileux,0
exalté,1
ensanglanté,0
enragé,0
enfermé,0
dénudé,-1
dormant,0
cramoisi,0
convaincant,0
châtain,0
caressant,0
bénit,0
bouilli,-1
éprouvé,1
vorace,0
surhumain,0
reconnu,1
ravagé,0
piètre,0
philosophique,0
optimiste,0
mythique,0
libanais,1
inlassable,0
inexorable,1
indigène,0
improvisé,0
hebdomadaire,0
exsangue,0
ennuyé,-1
désemparé,0
disposé,0
comblé,0
coiffé,0
bourguignon,0
biblique,0
angoissant,1
allant,0
agaçant,-1
affilé,0
édifiant,0
rieux,0
orageux,0
neigeux,0
insidieux,1
hygiénique,0
fastidieux,-1
décoratif,0
durci,0
contrarié,0
concentrique,0
cardinal,0
bouché,0
annuel,-1
anglo-saxon,1
studieux,1
somnolent,0
répandu,0
rival,0
raté,0
pimpant,0
myope,0
millénaire,1
mexicain,0
joueur,1
insipide,-1
ininterrompu,0
guéri,0
foireux,0
fatidique,0
exposé,0
entretenu,0
célibataire,-1
contagieux,-1
boudeur,0
bienfaisant,0
baveux,0
assorti,0
arrogant,0
ambiant,0
étranglé,0
éclaté,1
trait,0
sibérien,0
servi,1
protestant,0
irrépressible,0
frappé,1
dégoulinant,0
bourré,0
borgne,0
attendrissant,0
alsacien,0
universitaire,1
symétrique,1
superstitieux,0
saisi,1
sablonneux,0
réticent,0
ruiné,0
pliant,0
plausible,0
passionnel,1
métropolitain,0
mongol,0
introuvable,0
illimité,0
hongrois,0
gâteux,0
fécond,0
frissonnant,0
efflanqué,0
déplacé,0
descendant,1
conventionnel,-1
constituant,0
bouffi,0
blasé,1
abject,-1
épouvanté,0
échéant,0
vengeur,0
trouvé,0
transi,0
teint,1
systématique,0
râpeux,0
rigolo,-1
portée,1
plombé,0
masqué,0
manuel,0
interrompu,0
intarissable,0
innommable,0
habité,1
grenat,0
filial,1
déchu,0
dominant,0
confondu,0
conciliant,0
attirant,0
anniversaire,-1
étriqué,1
vertueux,0
tout-puissant,0
titubant,0
suffocant,0
soigneux,0
scrupuleux,0
sanguin,1
rôti,0
rougeaud,0
reculé,0
recueilli,1
qualifié,1
prime,0
photographique,-1
pendu,0
paralysé,0
mutuel,-1
malingre,0
irlandais,0
intrépide,0
indélébile,0
indirect,0
impératif,0
humiliant,0
grinçant,1
emporté,0
donnant,1
conservateur,0
cocu,0
clouté,0
civilisé,0
charitable,0
cerné,1
arbitraire,1
affable,0
écoeuré,-1
vocal,0
travailleur,0
tranché,1
stalinien,1
souhaitable,0
remis,0
recroquevillé,0
rapproché,0
parlementaire,0
objectif,-1
mousseux,0
monstre,1
magistral,1
inébranlable,1
immatériel,0
gardé,0
fantasque,0
engageant,0
dépassé,1
dément,0
croulant,0
crochu,0
catastrophique,0
cardiaque,0
bidon,0
attenant,0
absorbé,0
échevelé,0
ébréché,0
tondu,0
servile,0
scellé,1
psychiatrique,0
prodigue,1
princier,0
pessimiste,1
natif,0
infirme,0
inexistant,-1
inaudible,0
frappant,0
fantomatique,0
factice,0
déguisé,0
déformé,1
aventureux,1
autoritaire,0
articulé,0
approximatif,1
aplati,0
étourdi,0
édenté,0
écorché,0
théorique,0
sonné,0
résistant,0
reposant,0
provençal,0
poussif,0
obèse,0
lisible,0
hétérosexuel,0
enterré,0
enfoncé,0
enflé,0
désigné,0
démuni,0
démodé,0
cosmique,0
